Flat Configurator,"ООО ""Пересвет"" (three.js)",CS; Store,
smart_city,"ООО ""Системотехника строительства"" (Сколково) (three.js)",CS; Store,
pixonic,Пиксоник Геймз Лтд. (three.js),,
sber_card,ООО 'Ай Контекст' ,,
axe,ООО 'ДиСиЭй' (three.js),,
No_repos,"ООО ""А Эстейт"" (консульт. услуги)",,
webgears_europe,WEBGEARS EUROPE CY LTD,Store; Optimizer; CS; IV; Engine; BP; Editor,
hyper_cube,ЗАО «Тематика» (three.js),,
mvideo,ООО 'МВМ' (three.js),,
adidas,ООО АДИДАС (three.js),,
pepsi,ООО ПепсиКо Холдингс,Engine,
PIK,"ООО  ""ПИК Технологии""",CS; IV; BP; Optimizer,
kryogen,ГПБ Комплект (АО),IV,
br03,БР Инжиниринг ООО,,
br03,ООО «БОКСГЛАС» (подготовка моделей из rvt),,
kamaz,ООО ИЦ КАМАЗ,CS; Optimizer; IV,
Yandex Realty,,CS,
Ramtruck,,,
IBC Systems,,,
IV-test,тестовые приложения для IV,IV,
IV-VR,Эксперименты с VR в IV,IV,
Engine-wasm,"""rc",,
Engine-app-prototype,,IV; Engine,
store-auxiliary,"вспомогательные приложения(прототипы, эксперименты)",,
b3-utils,пакеты и инструменты для работы с threejs ,,
Pioneer,,,
Etalon,,,
Guardian,,,
Мебелик,,,
Seven suns,,,
Newtrax,,,
Assmann,,,
Webgears,,,Внутренние проекты
Fox Audio,,,
Intellekt-stroy,,,
Peresvet,,,
TT Group,,,
Вам удобно,,,
Zencoplasma,,,
Setl Group,,,
Decke.pro,,,
Доминанта,,,
Фагот,,,
Italbazar,,,
Лидер,,,
MCar,,,
roskosmos,,,
Palermo,,,
Palfinger,,,
sminex,,,
Tinman,,,
Webgears Libs,,,Библиотеки для внутреннего использования
Yolkki,,,
Lexion,,,
ЛСР,,,
Аристье,,,
BMW,,,
Nuttella,,,
Amazon,,,
Boeing,,,
Cars of war,,,
ТМХ,,,
Sodislab,,,
Славянская_стратегия,,,
Сбер_сфера,,,
Росатом,,,
Porsche,,,
Porsche_new,,,
ПЖИ,,,
Nitro_nation,,,
NY_flat,,,
Guns_of_boom,,,